AWSTATS DATA FILE 7.7 (build 20180105)
# If you remove this file, all statistics for date 202104 will be lost/reset.
# Last config file used to build this data file was /home/wcqnhlmyv4ky/tmp/awstats/awstats.on-fast.com.conf.

# Position (offset in bytes) in this file for beginning of each section for
# direct I/O access. If you made changes somewhere in this file, you should
# also remove completely the MAP section (AWStats will rewrite it at next
# update).
BEGIN_MAP 28
POS_GENERAL 2012                
POS_TIME 2691                
POS_VISITOR 11872               
POS_DAY 15470               
POS_DOMAIN 3476                
POS_LOGIN 3855                
POS_ROBOT 4010                
POS_WORMS 4568                
POS_EMAILSENDER 4699                
POS_EMAILRECEIVER 4842                
POS_SESSION 16189               
POS_SIDER 16384               
POS_FILETYPES 4977                
POS_DOWNLOADS 5278                
POS_OS 5326                
POS_BROWSER 5598                
POS_SCREENSIZE 7001                
POS_UNKNOWNREFERER 7075                
POS_UNKNOWNREFERERBROWSER 7697                
POS_ORIGIN 8164                
POS_SEREFERRALS 8303                
POS_PAGEREFS 8485                
POS_SEARCHWORDS 8688                
POS_KEYWORDS 8840                
POS_MISC 2354                
POS_ERRORS 8899                
POS_CLUSTER 3711                
POS_SIDER_404 9072                
END_MAP

# LastLine    = Date of last record processed - Last record line number in last log - Last record offset in last log - Last record signature value
# FirstTime   = Date of first visit for history file
# LastTime    = Date of last visit for history file
# LastUpdate  = Date of last update - Nb of parsed records - Nb of parsed old records - Nb of parsed new records - Nb of parsed corrupted - Nb of parsed dropped
# TotalVisits = Number of visits
# TotalUnique = Number of unique visitors
# MonthHostsKnown   = Number of hosts known
# MonthHostsUnKnown = Number of hosts unknown
BEGIN_GENERAL 8
LastLine 20210501002448 12 2279 24889304556676
FirstTime 20210401093609
LastTime 20210430181319
LastUpdate 20210501011901 12 0 11 0 0
TotalVisits 120                 
TotalUnique 85                  
MonthHostsKnown 0                   
MonthHostsUnknown 92                  
END_GENERAL

# Misc ID - Pages - Hits - Bandwidth
BEGIN_MISC 10
RealPlayerSupport 0 0 0
AddToFavourites 0 57 0
PDFSupport 0 0 0
JavascriptDisabled 0 0 0
QuickTimeSupport 0 0 0
DirectorSupport 0 0 0
JavaEnabled 0 0 0
WindowsMediaPlayerSupport 0 0 0
FlashSupport 0 0 0
TotalMisc 0 0 0
END_MISC

# Hour - Pages - Hits - Bandwidth - Not viewed Pages - Not viewed Hits - Not viewed Bandwidth
BEGIN_TIME 24
0 64 753 7048061 48 138 3052517
1 31 112 2170217 14 60 369146
2 45 129 3068500 26 46 39180
3 30 33 471727 23 48 199218
4 34 148 2863825 14 40 204970
5 92 146 1892147 17 57 26600
6 253 508 6768412 32 144 103297
7 99 197 2856672 4 17 8098
8 222 342 3400370 23 89 235893
9 85 126 1167236 14 68 130000
10 58 60 220957 10 16 559626
11 2 2 37855 5 9 1194
12 17 120 2421516 4 28 28155
13 5 22 467682 5 10 8745
14 5 13 146954 12 23 959808
15 9 21 495872 15 37 979437
16 16 28 602629 32 61 608958
17 0 0 0 8 13 19351
18 6 6 146538 5 13 48971
19 3 12 249691 9 10 22865
20 15 39 921835 7 23 187513
21 3 3 43670 7 9 18271
22 1 1 5808 3 11 140478
23 5 5 42501 21 30 2292
END_TIME

# Domain - Pages - Hits - Bandwidth
# The 25 first Pages must be first (order not required for others)
BEGIN_DOMAIN 11
eg 892 2272 26004256
us 104 229 5016417
ao 54 251 5310989
cn 23 23 160070
gb 8 20 490057
ua 7 7 17686
ru 6 18 452202
se 2 2 11616
zz 2 2 9527
hn 1 1 5808
fr 1 1 32047
END_DOMAIN

# Cluster ID - Pages - Hits - Bandwidth
BEGIN_CLUSTER 0
END_CLUSTER

# Login - Pages - Hits - Bandwidth - Last visit
# The 10 first Pages must be first (order not required for others)
BEGIN_LOGIN 0
END_LOGIN

# Robot ID - Hits - Bandwidth - Last visit - Hits on robots.txt
# The 25 first Hits must be first (order not required for others)
BEGIN_ROBOT 11
Googlebot/ 76 764225 20210428193856 9
bingpreview 44 2164451 20210427155353 0
MJ12bot/ 28 50070 20210429183134 11
bingbot/ 22 29448 20210428095201 17
unknown 9 216 20210430113151 9
AhrefsBot/ 5 17493 20210430151150 2
spider 3 17424 20210427162224 0
baidu 2 37855 20210417092511 0
Googlebot\-Image/ 2 130247 20210420212308 0
facebookexternalhit/ 1 77245 20210401093605 0
(firefox/)([0-9]\.|[0-1][0]\.) 1 5808 20210414172713 0
END_ROBOT

# Worm ID - Hits - Bandwidth - Last visit
# The 5 first Hits must be first (order not required for others)
BEGIN_WORMS 0
END_WORMS

# EMail - Hits - Bandwidth - Last visit
# The 20 first Hits must be first (order not required for others)
BEGIN_EMAILSENDER 0
END_EMAILSENDER

# EMail - Hits - Bandwidth - Last visit
# The 20 first hits must be first (order not required for others)
BEGIN_EMAILRECEIVER 0
END_EMAILRECEIVER

# Files type - Hits - Bandwidth - Bandwidth without compression - Bandwidth after compression
BEGIN_FILETYPES 12
php 3 8185 0 0
html 116 1143908 0 0
Unknown 820 3789049 0 0
png 128 2415510 0 0
woff 3 178518 0 0
ttf 26 661279 0 0
js 529 14089092 0 0
svg 515 2304406 0 0
jpg 93 2409796 0 0
css 461 5257649 0 0
woff2 52 4219503 0 0
jfif 80 1033780 0 0
END_FILETYPES

# Downloads - Hits - Bandwidth
BEGIN_DOWNLOADS 0
END_DOWNLOADS

# OS ID - Hits
BEGIN_OS ID - Hits - Pages 16
winnt 13 13
ios_iphone 4 4
macosx 2 2
winxp 5 5
macosx5 1 1
winvista 3 3
linux 123 52
win10 1134 152
Unknown 44 31
macosx8 1 1
macosx9 1 1
linuxandroid 3 3
win7 1449 818
win2000 2 2
win8 40 11
macosx10 1 1
END_OS

# Browser ID - Hits - Pages
BEGIN_BROWSER 63
chrome72.0.1258.88 1 1
chrome73.0.3828.88 1 1
mozilla 31 19
chrome4.0.202.0 1 1
firefox59.0 1 1
chrome84.0.4147.135 36 4
chrome89.0.4389.128 19 3
chrome77.0.1218.88 1 1
safari12.0 1 1
chrome78.0.3407.88 1 1
chrome75.0.3856.88 1 1
safari11.0 1 1
chrome26.0.1410.65 1 1
chrome90.0.4430.72 139 29
android 1 1
firefox82.0 2 2
chrome76.0.3203.88 1 1
chrome71.0.1531.88 1 1
safari 1 1
safari12.1 1 1
chrome78.0.3372.88 1 1
chrome74.0.3729.131 19 2
chrome90.0.4430.85 216 50
chrome79.0.3943.88 1 1
chrome78.0.2675.88 1 1
chrome83.0.4103.61 14 2
chrome78.0.3532.88 1 1
chrome80.0.3987 1 1
chrome88.0.4324.150 54 18
chrome45.0.2454.94 1 1
chrome89.0.4389.90 399 339
chrome5.0.375.86 1 1
chrome72.0.1301.88 1 1
chrome86.0.42400.198 12 4
chrome71.0.1748.88 1 1
chrome80.0.3987.132 1 1
edge12 1 1
chrome79.0.1338.88 1 1
chrome83.0.4103.97 16 16
chrome35.0.1916.47 1 1
safari14.0.3 1 1
chrome41.0.2225.0 1 1
msie9.0 10 0
chrome79.0.3945.79 36 12
chrome78.0.3904.62 1 1
chrome71.0.2596.88 1 1
msie6.0 4 4
chrome77.0.2888.88 1 1
firefox66.0 1 1
chrome74.0.3705.88 1 1
chrome70.0.1336.88 1 1
chrome80.0.3987.122 1 1
Unknown 13 12
opera75.0.3969.149 18 6
chrome89.0.4389.114 1724 530
chrome86.0.4240.183 1 1
chrome73.0.2585.88 1 1
chrome75.0.2414.88 1 1
chrome41.0.2227.0 1 1
chrome13.0.782.24 2 2
chrome65.0.3325.181 2 2
chrome29.0.1547.66 18 2
chrome72.0.2212.88 1 1
END_BROWSER

# Screen size - Hits
BEGIN_SCREENSIZE 0
END_SCREENSIZE

# Unknown referer OS - Last visit date
BEGIN_UNKNOWNREFERER 6
Mozilla/5.0_(compatible;_Domains_Project/1.3.2;__https://domainsproject.org) 20210412004521
Installatron_Plugin/9.1.54 20210406000928
Ruby 20210406161548
Expanse,_a_Palo_Alto_Networks_company,_searches_across_the_global_IPv4_space_multiple_times_per_day_to_identify_customers&#39;_presences_on_the_Internet._If_you_would_like_to_be_excluded_from_our_scans,_please_send_IP_addresses/domains_to:_scaninfo@paloaltonetworks.com 20210430040319
Mozilla/5.0_(compatible;_Dataprovider.com) 20210420162901
WhatsApp/2.20.205.16_A 20210405024308
END_UNKNOWNREFERER

# Unknown referer Browser - Last visit date
BEGIN_UNKNOWNREFERERBROWSER 4
WhatsApp/2.20.205.16_A 20210405024308
Expanse,_a_Palo_Alto_Networks_company,_searches_across_the_global_IPv4_space_multiple_times_per_day_to_identify_customers&#39;_presences_on_the_Internet._If_you_would_like_to_be_excluded_from_our_scans,_please_send_IP_addresses/domains_to:_scaninfo@paloaltonetworks.com 20210430040319
Ruby 20210406161548
Installatron_Plugin/9.1.54 20210406000928
END_UNKNOWNREFERERBROWSER

# Origin - Pages - Hits 
BEGIN_ORIGIN 6
From0 161 189
From1 0 0
From2 5 5
From3 2 2
From4 932 2630
From5 0 0
END_ORIGIN

# Search engine referers ID - Pages - Hits
BEGIN_SEREFERRALS 2
www_google_com 4 4
yahoo_catchall 1 1
END_SEREFERRALS

# External page referers - Pages - Hits
# The 25 first Pages must be first (order not required for others)
BEGIN_PAGEREFS 2
http://com.all-url.info 1 1
https://l.facebook.com 1 1
END_PAGEREFS

# Search keyphrases - Number of search
# The 10 first number of search must be first (order not required for others)
BEGIN_SEARCHWORDS 0
END_SEARCHWORDS

# Search keywords - Number of search
# The 25 first number of search must be first (order not required for others)
BEGIN_KEYWORDS 0
END_KEYWORDS

# Errors - Hits - Bandwidth
BEGIN_ERRORS 8
401 1 50
404 609 327710
419 1 894
422 14 1896
500 42 4060383
405 1 169296
302 72 15095
301 1 257
END_ERRORS

# URL with 404 errors - Hits - Last URL referrer
BEGIN_SIDER_404 53
/sitemap.xml 7 -
/public/assets/admin/vendors/css/forms/icheck/icheck.css 23 http://on-fast.com/public/admin/login
/public/admin/login 8 -
/public/assets/admin/vendors/css/forms/icheck/custom.css 23 http://on-fast.com/public/admin/login
/xmlrpc.php 1 -
/assets/user/assets/css/owl.video.play.png 3 http://on-fast.com/
/ 50 -
/contact.html 9 -
/services.html 6 -
/assets/app-assets/images/backgrounds/bg-2.jpg 2 http://on-fast.com/admin/login
/password/services.html 4 -
/atom.xml 6 -
/assets/admin/vendors/css/forms/icheck/icheck.css 24 http://on-fast.com/admin/login
/assets/admin/vendors/css/extensions/pace.css 24 http://on-fast.com/assets/admin/css-rtl/vendors.css
/public/assets/admin/vendors/js/vendors.min.js 30 http://on-fast.com/public/admin/login
/assets/admin/vendors/css/forms/icheck/custom.css 24 http://on-fast.com/admin/login
/sitemaps.xml 7 -
/assets/user/assets/js/easyresponsivetabs.js 2 -
/humans.txt 2 -
/public/admin/orderDetailes/create 1 http://on-fast.com/public/admin/Dashboard
/about.html 8 -
/public/assets/images/pic3.png 1 http://on-fast.com/public/
/public/assets/admin/vendors/js/forms/validation/jqBootstrapValidation.js 39 http://on-fast.com/public/admin/login
/password/index.html 4 -
/public/assets/admin/vendors/js/forms/icheck/icheck.min.js 36 http://on-fast.com/public/admin/login
/public/admin/Dashboard 5 http://on-fast.com/public/admin/login
/assets/admin/vendors/js/forms/icheck/icheck.min.js 36 http://on-fast.com/admin/login
/terms.html 2 -
/public/assets/admin/vendors/css/extensions/pace.css 23 http://on-fast.com/public/assets/admin/css-rtl/vendors.css
/assets/images/footer.jpg 36 http://on-fast.com/
/login.jsp 1 -
/assets/app-assets/images/icons/img.png 1 http://on-fast.com/admin/login
/sitemap.txt 6 -
/sitemap_index.xml 6 -
/password/contact.html 4 -
/sitemap.xml.gz 6 -
/public/admin/products 1 http://on-fast.com/public/admin/Dashboard
/assets/admin/vendors/js/vendors.min.js 37 http://on-fast.com/admin/login
/staff.html 1 -
/admin/regsiter 1 -
/laravel/_ignition/health-check 1 http://on-fast.com/laravel/_ignition/health-check/
/assets/admin/vendors/js/forms/validation/jqBootstrapValidation.js 39 http://on-fast.com/admin/login
/aboutus 1 -
/index.html 6 -
/_ignition/health-check/ 1 -
/ads.txt 3 -
/wp-login.php 4 -
/public/admin/admins 1 -
/assets/images/pic5.png 1 http://on-fast.com/aboutUs
/public/assets/images/footer.jpg 1 http://on-fast.com/public/
/assets/images/pic3.png 32 http://on-fast.com/
/robots.txt 8 -
/login 1 -
END_SIDER_404

# Host - Pages - Hits - Bandwidth - Last visit date - [Start date of last visit] - [Last page of last visit]
# [Start date of last visit] and [Last page of last visit] are saved only if session is not finished
# The 25 first Hits must be first (order not required for others)
BEGIN_VISITOR 92
197.63.157.198 226 383 5191270 20210405093309
197.63.232.54 209 323 3493614 20210403052538
41.232.79.146 130 140 701467 20210404090515
197.63.140.199 126 133 534294 20210403103231
197.42.31.26 79 302 5493227 20210414064938
197.63.80.196 39 122 2138160 20210425083843
154.184.83.76 22 118 2626833 20210419043750
121.37.133.156 21 21 122115 20210417203222
154.185.1.157 19 92 2079410 20210409020700
205.169.39.211 14 50 1105930 20210420052010
197.40.173.188 14 555 3192844 20210408005558
156.216.96.194 12 44 660312 20210406015614
196.218.62.110 11 40 594482 20210401093727
156.219.33.87 11 35 827228 20210410054828
197.63.88.25 10 93 2124726 20210421124341
154.189.52.30 9 37 593889 20210408005905
41.187.114.4 8 73 522910 20210421124243
100.21.218.158 7 19 458003 20210416152046
107.219.106.197 7 21 854958 20210421025043
149.56.150.67 7 7 132996 20210420162849
82.193.104.168 7 7 17686 20210412004521
3.14.6.234 6 18 452195 20210411201944
18.216.75.207 6 18 452195 20210406094148
77.222.114.92 6 18 452202 20210425003959
41.234.228.163 6 18 452195 20210406002909
44.242.148.18 1 1 5808 20210410012120
54.70.232.155 1 1 5808 20210416011821
34.96.130.2 1 1 32047 20210409033723
156.216.119.182 1 1 12535 20210430181319
34.86.35.11 1 1 32147 20210430040319
34.86.35.12 1 1 32047 20210423022446
199.244.88.132 1 1 0 20210426025004
184.168.224.230 1 1 5808 20210406161548
208.80.194.42 3 3 96141 20210429155321
86.215.217.139 1 1 32047 20210410183508
13.66.139.6 0 2 35487 
34.216.77.81 1 1 5808 20210425144831
44.242.154.250 1 1 5808 20210419010512
157.90.229.53 1 1 5808 20210425022922
40.77.167.56 0 1 20050 
23.94.103.106 1 1 5808 20210425222552
192.36.248.249 1 1 5808 20210417091029
173.212.199.138 1 10 238061 20210421194739
216.19.195.134 1 1 32047 20210414184112
44.238.100.2 1 1 5808 20210423012353
40.77.167.20 0 1 15437 
172.241.83.202 1 1 5808 20210406055250
34.215.201.2 1 1 5808 20210417011838
13.66.139.16 0 2 24386 
3.121.239.77 1 1 0 20210422001109
34.223.103.59 1 1 5808 20210426010226
191.102.158.73 1 1 5808 20210406065730
88.107.187.211 1 1 32047 20210410183504
44.242.147.163 1 1 5808 20210407012739
34.222.84.79 1 1 5808 20210409012115
1.15.175.155 1 1 5808 20210416213153
54.203.73.198 1 1 5808 20210430113148
52.142.11.187 4 12 141146 20210410144950
34.214.112.36 1 1 5808 20210422012115
154.188.124.183 4 4 10857 20210406100944
13.66.139.69 0 1 32776 
34.105.43.96 1 1 0 20210417103331
41.45.161.53 2 2 8611 20210404034341
197.63.55.203 3 3 20614 20210406082727
34.96.130.19 1 1 32047 20210408115721
68.183.241.134 1 1 32047 20210410183504
44.242.160.50 1 1 5808 20210430012504
51.91.219.193 6 18 452202 20210420162901
208.80.194.41 1 1 32047 20210408065553
162.55.63.12 1 1 5808 20210430073047
34.86.35.30 1 1 32047 20210420125456
54.201.42.118 1 1 5808 20210408012340
54.214.209.109 1 1 5808 20210412012100
3.96.188.145 1 1 5808 20210427043036
42.83.147.202 1 1 32147 20210423000758
35.80.21.190 1 1 5808 20210406012242
35.80.15.164 1 1 5808 20210420012012
173.201.186.94 3 3 8185 20210406000928
198.12.66.141 1 1 5808 20210427165448
34.86.35.15 1 1 32047 20210427122441
54.191.160.21 1 1 5808 20210414011605
158.175.164.89 1 1 5808 20210425024048
34.96.130.13 1 1 32047 20210413213539
158.51.121.80 2 2 9527 20210423000118
156.217.98.94 5 5 35767 20210410095422
34.82.18.12 1 1 0 20210417103331
64.246.165.170 1 1 5815 20210422082847
207.46.13.151 0 2 610 
93.158.90.137 1 1 5808 20210422120425
34.223.108.159 1 1 5808 20210411012042
40.77.167.16 0 1 24081 
3.143.241.107 6 18 452195 20210416203057
END_VISITOR

# Date - Pages - Hits - Bandwidth - Visits
BEGIN_DAY 28
20210401 11 40 594482 1
20210402 178 286 3229310 1
20210403 159 189 934027 5
20210404 132 142 710078 2
20210405 227 384 5203805 2
20210406 39 95 1626685 13
20210407 8 11 223825 4
20210408 25 591 3680214 7
20210409 28 113 2503928 7
20210410 18 38 718536 9
20210411 9 21 469633 4
20210412 10 10 35124 4
20210413 4 4 49485 4
20210414 85 329 5764522 6
20210415 3 3 43677 3
20210416 15 39 921821 5
20210417 5 5 17431 5
20210419 25 137 2761801 3
20210420 29 77 1728983 5
20210421 20 142 3346905 4
20210422 5 5 49478 5
20210423 5 9 139402 4
20210425 49 144 2613594 6
20210426 2 2 5808 2
20210427 3 3 43663 3
20210428 0 1 305 0
20210429 1 1 32047 1
20210430 5 5 62106 5
END_DAY

# Session range - Number of visits
BEGIN_SESSION 6
5mn-15mn 4
30s-2mn 7
30mn-1h 2
2mn-5mn 2
0s-30s 100
1h+ 5
END_SESSION

# URL - Pages - Bandwidth - Entry - Exit
# The 25 first Pages must be first (order not required for others)
BEGIN_SIDER 93
/public/admin/products/store 156 84450 0 3
/ 115 1138089 102 77
/public/admin/products 97 2164879 0 2
/public/admin/orderDetailes/addToCart 77 8611 0 1
/public/admin/orderDetailes/search 52 14752 0 0
/public/admin/products/cities/1 44 24048 0 0
/admin/orderDetailes/search 35 5354 0 0
/public/admin/products/cities/2 28 3976 0 0
/public/admin/suppliers 27 327416 0 0
/public/admin/Dashboard 25 160321 1 1
/public/admin/login 25 55230 8 1
/admin/login 24 55074 5 0
/assets/user/assets/images/download%20(1).jfif 19 197885 0 0
/admin/orderDetailes/addToCart 19 2128 0 0
/assets/user/assets/images/[SJ933728-GOLD]%20Aqua%20Set.jfif 19 356782 0 0
/assets/user/assets/images/images.jfif 19 213446 0 2
/assets/user/assets/images/download.jfif 19 213978 0 0
/public/admin/suppliers/cities/6 18 5508 0 0
/assets/user/assets/fonts/fontawesome-webfont.woff2 17 1311754 0 9
/public/admin/suppliers/store 15 4318 0 0
/public/admin/products/cities/6 14 4284 0 0
/assets/admin/fonts/feather/fonts/feather.ttf 13 305552 0 6
/public/admin/products/cities/9 13 4680 0 0
/public/admin/orderDetailes/submit_new_order 12 116946 0 1
/public/admin/products/cities/5 10 3500 0 0
/public/admin/orderDetailes/cities/5 1 350 0 0
/public/admin/reborts/servantindex 1 14484 0 0
/assets/plugins/line-awesome/fonts/la-solid-900.woff2 4 386608 0 2
/public/assets/plugins/boxicons/fonts/boxicons.woff2 1 89426 0 0
/public/assets/user/assets/fonts/fontawesome-webfont.woff2 1 77162 0 0
/login 6 12743 0 1
/assets/plugins/feather/fonts/feather/feather-webfont.ttf 6 174474 0 0
/public/admin/products/edit/134 1 8068 0 0
/public/admin/suppliers/getSoftDelete 1 6809 0 0
/admin/orders/show/7 1 9830 0 0
/admin/orderDetailes/cities/3 1 393 0 0
/password/reset 3 19019 0 1
/admin/products/store 1 500 0 0
/public/admin/products/cities/8 5 1655 0 0
/admin/reborts/orderNumber_reborts 3 24056 0 0
/public/admin/products/cities/14 1 22 0 0
/public/assets/user/assets/images/download.jfif 1 11262 0 0
/public/admin/orders/index 4 26392 0 0
/public/assets/plugins/ionicons/fonts/ionicons.woff2 3 151587 0 0
/public/admin/orderDetailes/cities/3 1 393 0 0
/public/assets/plugins/typicons.font/typicons.woff 2 119012 0 0
/deleteme.chanfmi8.php 1 2743 0 0
/assets/plugins/fontawesome-free/webfonts/fa-solid-900.woff2 6 454272 0 1
/admin/orderDetailes/cities/2 1 142 0 0
/aboutUs 5 29030 0 3
/public/admin/products/edit/262 1 8264 0 0
/admin/products/cities/3 1 393 0 0
/deleteme.chada6ba.php 1 2743 0 1
/public/admin/orders/softDelete 2 12902 0 0
/admin/orders/index 1 6636 0 0
/register 6 13599 0 1
/public/admin/orders/show/5 2 21133 0 0
/public/admin/orders/changeStatus 8 992 0 0
/public/admin/orderDetailes/cities/2 2 284 0 0
/public/assets/admin/fonts/feather/fonts/feather.ttf 4 94016 0 1
/public/admin/orderDetailes/cities/9 1 360 0 0
/public/admin/products/cities/7 8 2584 0 0
/public/ 1 5819 1 0
/cpanel 8 100277 2 4
/public/admin/orders/edit/5 3 17673 0 0
/public/admin/products/cities/10 2 362 0 0
/admin/Dashboard 8 51175 0 0
/public/admin/products/cities/3 4 1572 0 0
/public/admin/cities 2 23986 0 0
/admin/cities 1 11989 0 0
/public/assets/plugins/line-awesome/fonts/la-solid-900.woff2 3 289956 0 0
/public/admin/products/cities/12 1 141 0 0
/admin/orderDetailes/cities/8 1 331 0 0
/public/admin/suppliers/cities/1 1 523 0 0
/public/assets/plugins/feather/fonts/feather/feather-webfont.ttf 3 87237 0 0
/public/admin/orderDetailes/cities/6 2 612 0 0
/public/admin/products/cities/4 2 290 0 0
/admin/products 7 180377 0 1
/public/assets/user/assets/images/images.jfif 1 11234 0 0
/public/assets/plugins/materialdesignicons/fonts/materialdesignicons-webfont.woff2 3 326319 0 0
/public/admin/cities/store 1 661 0 0
/admin/orderDetailes/create 2 15711 0 0
/admin/orderDetailes/submit_new_order 3 30969 0 0
/public/admin/orderDetailes/create 7 55038 0 0
/assets/plugins/materialdesignicons/fonts/materialdesignicons-webfont.woff2 6 652638 0 0
/public/assets/plugins/fontawesome-free/webfonts/fa-solid-900.woff2 3 227136 0 0
/deleteme.chazce8u.php 1 2699 1 0
/public/admin/suppliers/cities/3 1 393 0 0
/assets/plugins/typicons.font/typicons.woff 1 59506 0 0
/admin/reborts/orderNumber_index 5 30461 0 1
/public/assets/user/assets/images/[SJ933728-GOLD]%20Aqua%20Set.jfif 1 18778 0 0
/assets/plugins/ionicons/fonts/ionicons.woff2 5 252645 0 0
/public/assets/user/assets/images/download%20(1).jfif 1 10415 0 0
END_SIDER
