AWSTATS DATA FILE 7.7 (build 20180105)
# If you remove this file, all statistics for date 202202 will be lost/reset.
# Last config file used to build this data file was /home/wcqnhlmyv4ky/tmp/awstats/awstats.on-fast.com.conf.

# Position (offset in bytes) in this file for beginning of each section for
# direct I/O access. If you made changes somewhere in this file, you should
# also remove completely the MAP section (AWStats will rewrite it at next
# update).
BEGIN_MAP 28
POS_GENERAL 2012                
POS_TIME 2684                
POS_VISITOR 6219                
POS_DAY 6419                
POS_DOMAIN 3170                
POS_LOGIN 3406                
POS_ROBOT 3561                
POS_WORMS 3693                
POS_EMAILSENDER 3824                
POS_EMAILRECEIVER 3967                
POS_SESSION 6535                
POS_SIDER 6681                
POS_FILETYPES 4102                
POS_DOWNLOADS 4183                
POS_OS 4231                
POS_BROWSER 4308                
POS_SCREENSIZE 4370                
POS_UNKNOWNREFERER 4444                
POS_UNKNOWNREFERERBROWSER 4825                
POS_ORIGIN 5201                
POS_SEREFERRALS 5331                
POS_PAGEREFS 5475                
POS_SEARCHWORDS 5623                
POS_KEYWORDS 5775                
POS_MISC 2348                
POS_ERRORS 5834                
POS_CLUSTER 3262                
POS_SIDER_404 5910                
END_MAP

# LastLine    = Date of last record processed - Last record line number in last log - Last record offset in last log - Last record signature value
# FirstTime   = Date of first visit for history file
# LastTime    = Date of last visit for history file
# LastUpdate  = Date of last update - Nb of parsed records - Nb of parsed old records - Nb of parsed new records - Nb of parsed corrupted - Nb of parsed dropped
# TotalVisits = Number of visits
# TotalUnique = Number of unique visitors
# MonthHostsKnown   = Number of hosts known
# MonthHostsUnKnown = Number of hosts unknown
BEGIN_GENERAL 8
LastLine 20220208150601 1 0 15541871020355
FirstTime 20220204010645
LastTime 20220208150601
LastUpdate 20220209050846 1 0 1 0 0
TotalVisits 3                   
TotalUnique 3                   
MonthHostsKnown 0                   
MonthHostsUnknown 3                   
END_GENERAL

# Misc ID - Pages - Hits - Bandwidth
BEGIN_MISC 10
WindowsMediaPlayerSupport 0 0 0
RealPlayerSupport 0 0 0
AddToFavourites 0 0 0
JavascriptDisabled 0 0 0
TotalMisc 0 0 0
JavaEnabled 0 0 0
DirectorSupport 0 0 0
PDFSupport 0 0 0
FlashSupport 0 0 0
QuickTimeSupport 0 0 0
END_MISC

# Hour - Pages - Hits - Bandwidth - Not viewed Pages - Not viewed Hits - Not viewed Bandwidth
BEGIN_TIME 24
0 0 0 0 0 0 0
1 1 1 9235 0 0 0
2 0 0 0 0 0 0
3 0 0 0 0 0 0
4 0 0 0 0 0 0
5 0 0 0 0 0 0
6 0 0 0 0 0 0
7 0 0 0 0 0 0
8 0 0 0 0 0 0
9 0 0 0 0 0 0
10 0 0 0 0 0 0
11 0 0 0 0 0 0
12 0 0 0 0 0 0
13 0 0 0 0 0 0
14 1 1 9235 0 0 0
15 1 1 9235 0 0 0
16 0 0 0 0 0 0
17 0 0 0 0 0 0
18 0 0 0 0 0 0
19 0 0 0 0 0 0
20 0 0 0 0 0 0
21 0 0 0 0 0 0
22 0 0 0 0 0 0
23 0 0 0 0 0 0
END_TIME

# Domain - Pages - Hits - Bandwidth
# The 25 first Pages must be first (order not required for others)
BEGIN_DOMAIN 2
us 2 2 18470
gr 1 1 9235
END_DOMAIN

# Cluster ID - Pages - Hits - Bandwidth
BEGIN_CLUSTER 0
END_CLUSTER

# Login - Pages - Hits - Bandwidth - Last visit
# The 10 first Pages must be first (order not required for others)
BEGIN_LOGIN 0
END_LOGIN

# Robot ID - Hits - Bandwidth - Last visit - Hits on robots.txt
# The 25 first Hits must be first (order not required for others)
BEGIN_ROBOT 0
END_ROBOT

# Worm ID - Hits - Bandwidth - Last visit
# The 5 first Hits must be first (order not required for others)
BEGIN_WORMS 0
END_WORMS

# EMail - Hits - Bandwidth - Last visit
# The 20 first Hits must be first (order not required for others)
BEGIN_EMAILSENDER 0
END_EMAILSENDER

# EMail - Hits - Bandwidth - Last visit
# The 20 first hits must be first (order not required for others)
BEGIN_EMAILRECEIVER 0
END_EMAILRECEIVER

# Files type - Hits - Bandwidth - Bandwidth without compression - Bandwidth after compression
BEGIN_FILETYPES 1
html 3 27705 0 0
END_FILETYPES

# Downloads - Hits - Bandwidth
BEGIN_DOWNLOADS 0
END_DOWNLOADS

# OS ID - Hits
BEGIN_OS ID - Hits - Pages 1
Unknown 3 3
END_OS

# Browser ID - Hits - Pages
BEGIN_BROWSER 1
Unknown 3 3
END_BROWSER

# Screen size - Hits
BEGIN_SCREENSIZE 0
END_SCREENSIZE

# Unknown referer OS - Last visit date
BEGIN_UNKNOWNREFERER 2
Expanse_indexes_the_network_perimeters_of_our_customers._If_you_have_any_questions_or_concerns,_please_reach_out_to:_scaninfo@expanseinc.com 20220208150601
NetSystemsResearch_studies_the_availability_of_various_services_across_the_internet._Our_website_is_netsystemsresearch.com 20220206145858
END_UNKNOWNREFERER

# Unknown referer Browser - Last visit date
BEGIN_UNKNOWNREFERERBROWSER 2
NetSystemsResearch_studies_the_availability_of_various_services_across_the_internet._Our_website_is_netsystemsresearch.com 20220206145858
Expanse_indexes_the_network_perimeters_of_our_customers._If_you_have_any_questions_or_concerns,_please_reach_out_to:_scaninfo@expanseinc.com 20220208150601
END_UNKNOWNREFERERBROWSER

# Origin - Pages - Hits 
BEGIN_ORIGIN 6
From0 3 3
From1 0 0
From2 0 0
From3 0 0
From4 0 0
From5 0 0
END_ORIGIN

# Search engine referers ID - Pages - Hits
BEGIN_SEREFERRALS 0
END_SEREFERRALS

# External page referers - Pages - Hits
# The 25 first Pages must be first (order not required for others)
BEGIN_PAGEREFS 0
END_PAGEREFS

# Search keyphrases - Number of search
# The 10 first number of search must be first (order not required for others)
BEGIN_SEARCHWORDS 0
END_SEARCHWORDS

# Search keywords - Number of search
# The 25 first number of search must be first (order not required for others)
BEGIN_KEYWORDS 0
END_KEYWORDS

# Errors - Hits - Bandwidth
BEGIN_ERRORS 0
END_ERRORS

# URL with 404 errors - Hits - Last URL referrer
BEGIN_SIDER_404 0
END_SIDER_404

# Host - Pages - Hits - Bandwidth - Last visit date - [Start date of last visit] - [Last page of last visit]
# [Start date of last visit] and [Last page of last visit] are saved only if session is not finished
# The 25 first Hits must be first (order not required for others)
BEGIN_VISITOR 3
92.118.160.61 1 1 9235 20220206145858
34.86.35.28 1 1 9235 20220204010645
34.77.162.21 1 1 9235 20220208150601 20220208150601 /
END_VISITOR

# Date - Pages - Hits - Bandwidth - Visits
BEGIN_DAY 3
20220204 1 1 9235 1
20220206 1 1 9235 1
20220208 1 1 9235 1
END_DAY

# Session range - Number of visits
BEGIN_SESSION 1
0s-30s 2
END_SESSION

# URL - Pages - Bandwidth - Entry - Exit
# The 25 first Pages must be first (order not required for others)
BEGIN_SIDER 1
/ 3 27705 3 2
END_SIDER
